000000;65465466D;Carrasco;Borja;C/Calle;28400;Villalba;918512759;655628968;999999999
222222;46546546R;Banatao;Ron;C/Calle;28400;Villalba;918512759;655628968;999999999
333333;45645646R;Michael;Tiffany;C/Calle;28400;Villalba;918512759;655628968;999999999
444444;45646544E;Capitan;Nacho;C/Calle;28400;Villalba;918512759;655628968;999999999